{
	"info": {
		"_postman_id": "b080f61b-7167-415a-b7c4-4d65d02e1ced",
		"name": "S12",
		"schema": "https://schema.getpostman.com/json/collection/v2.1.0/collection.json",
		"_exporter_id": "23537056"
	},
	"item": [
		{
			"name": "Users",
			"item": [
				{
					"name": "Create User",
					"request": {
						"method": "POST",
						"header": [],
						"body": {
							"mode": "raw",
							"raw": "{\r\n    \"username\":\"john\",\r\n    \"password\": \"john1234!\"\r\n}",
							"options": {
								"raw": {
									"language": "json"
								}
							}
						},
						"url": {
							"raw": "localhost:8080/users",
							"host": [
								"localhost"
							],
							"port": "8080",
							"path": [
								"users"
							]
						}
					},
					"response": []
				},
				{
					"name": "Get Users",
					"request": {
						"method": "GET",
						"header": [],
						"url": {
							"raw": "localhost:8080/users",
							"host": [
								"localhost"
							],
							"port": "8080",
							"path": [
								"users"
							]
						}
					},
					"response": []
				},
				{
					"name": "Delete User",
					"request": {
						"method": "DELETE",
						"header": [],
						"url": {
							"raw": "localhost:8080/users/1",
							"host": [
								"localhost"
							],
							"port": "8080",
							"path": [
								"users",
								"1"
							]
						}
					},
					"response": []
				},
				{
					"name": "New Request",
					"request": {
						"method": "PUT",
						"header": [],
						"body": {
							"mode": "raw",
							"raw": "{\r\n    \"username\":\"johndoe\",\r\n    \"password\": \"johnd123\"\r\n}",
							"options": {
								"raw": {
									"language": "json"
								}
							}
						},
						"url": {
							"raw": "localhost:8080/users/2",
							"host": [
								"localhost"
							],
							"port": "8080",
							"path": [
								"users",
								"2"
							]
						}
					},
					"response": []
				}
			]
		},
		{
			"name": "Post",
			"item": [
				{
					"name": "Create Post",
					"request": {
						"method": "POST",
						"header": [],
						"body": {
							"mode": "raw",
							"raw": "{\r\n    \"title\":\"My first post\",\r\n    \"content\": \"Hello World!\"\r\n}",
							"options": {
								"raw": {
									"language": "json"
								}
							}
						},
						"url": {
							"raw": "localhost:8080/posts",
							"host": [
								"localhost"
							],
							"port": "8080",
							"path": [
								"posts"
							]
						}
					},
					"response": []
				},
				{
					"name": "DeletePost",
					"request": {
						"method": "DELETE",
						"header": [],
						"url": {
							"raw": "localhost:8080/posts/1",
							"host": [
								"localhost"
							],
							"port": "8080",
							"path": [
								"posts",
								"1"
							]
						}
					},
					"response": []
				},
				{
					"name": "Get Post",
					"request": {
						"method": "GET",
						"header": []
					},
					"response": []
				},
				{
					"name": "Update Post",
					"request": {
						"method": "PUT",
						"header": [],
						"body": {
							"mode": "raw",
							"raw": "{\r\n    \"title\": \"Updated Post:\",\r\n    \"content\": \"This post was Updated.\"\r\n}",
							"options": {
								"raw": {
									"language": "json"
								}
							}
						},
						"url": {
							"raw": "localhost:8080/posts/2",
							"host": [
								"localhost"
							],
							"port": "8080",
							"path": [
								"posts",
								"2"
							]
						}
					},
					"response": []
				}
			]
		}
	]
}